%YAML 1.1
%TAG !u! tag:unity3d.com,2011:
--- !u!114 &11400000
MonoBehaviour:
  m_ObjectHideFlags: 0
  m_PrefabParentObject: {fileID: 0}
  m_PrefabInternal: {fileID: 0}
  m_GameObject: {fileID: 0}
  m_Enabled: 1
  m_EditorHideFlags: 0
  m_Script: {fileID: 11500000, guid: d48a5bfdcbdd5c149a3aa5cede7c578e, type: 3}
  m_Name: AudioThrust
  m_EditorClassIdentifier: 
  clips:
  - {fileID: 8300000, guid: df919ef867c6682458ced3b9dea7d1a4, type: 3}
